…
```r
flights %>% 
  left_join(weather, by = c("year", "month", "day", "origin", "hour", "time_hour")) %>% 
  left_join(planes, by = "tailnum") %>% 
  left_join(airports, c("dest" = "faa")) %>% 
  left_join(airlines, b = c("carrier" = "name"))
```

```
## # A tibble: 336,776 x 44
##    year.x month   day dep_time sched_dep_time dep_delay arr_time sched_arr_time
##     <int> <int> <int>    <int>          <int>     <dbl>    <int>          <int>
##  1   2013     1     1      517            515         2      830            819
##  2   2013     1     1      533            529         4      850            830
##  3   2013     1     1      542            540         2      923            850
##  4   2013     1     1      544            545        -1     1004           1022
##  5   2013     1     1      554            600        -6      812            837
##  6   2013     1     1      554            558        -4      740            728
##  7   2013     1     1      555            600        -5      913            854
##  8   2013     1     1      557            600        -3      709            723
##  9   2013     1     1      557            600        -3      838            846
## 10   2013     1     1      558            600        -2      753            745
## # ... with 336,766 more rows, and 36 more variables: arr_delay <dbl>,
## #   carrier <chr>, flight <int>, tailnum <chr>, origin <chr>, dest <chr>,
## #   air_time <dbl>, distance <dbl>, hour <dbl>, minute <dbl>, time_hour <dttm>,
## #   temp <dbl>, dewp <dbl>, humid <dbl>, wind_dir <dbl>, wind_speed <dbl>,
## #   wind_gust <dbl>, precip <dbl>, pressure <dbl>, visib <dbl>, year.y <int>,
## #   type <chr>, manufacturer <chr>, model <chr>, engines <int>, seats <int>,
## #   speed <int>, engine <chr>, name <chr>, lat <dbl>, lon <dbl>, alt <dbl>,
## #   tz <dbl>, dst <chr>, tzone <chr>, carrier.y <chr>
```
