…
## `select()`

1. Make a data frame containing the columns `year`, `lifeExp`, `country` from 
the `gapminder` data, in that order.


```r
# the order that you put these in will be the oder that the data is displayed as:
select(gapminder, year, lifeExp, country)
```

```
## # A tibble: 1,704 x 3
##     year lifeExp country    
##    <int>   <dbl> <fct>      
##  1  1952    28.8 Afghanistan
##  2  1957    30.3 Afghanistan
##  3  1962    32.0 Afghanistan
##  4  1967    34.0 Afghanistan
##  5  1972    36.1 Afghanistan
##  6  1977    38.4 Afghanistan
##  7  1982    39.9 Afghanistan
##  8  1987    40.8 Afghanistan
##  9  1992    41.7 Afghanistan
## 10  1997    41.8 Afghanistan
## # ... with 1,694 more rows
```

2. Select all variables, from `country` to `lifeExp`.


```r
# This will work (by listing variables independently):
select(gapminder, country, continent, year, lifeExp)
```

```
## # A tibble: 1,704 x 4
##    country     continent  year lifeExp
##    <fct>       <fct>     <int>   <dbl>
##  1 Afghanistan Asia       1952    28.8
##  2 Afghanistan Asia       1957    30.3
##  3 Afghanistan Asia       1962    32.0
##  4 Afghanistan Asia       1967    34.0
##  5 Afghanistan Asia       1972    36.1
##  6 Afghanistan Asia       1977    38.4
##  7 Afghanistan Asia       1982    39.9
##  8 Afghanistan Asia       1987    40.8
##  9 Afghanistan Asia       1992    41.7
## 10 Afghanistan Asia       1997    41.8
## # ... with 1,694 more rows
```

```r
# Better way (by utilizing colon):
select(gapminder, country:lifeExp)
```

```
## # A tibble: 1,704 x 4
##    country     continent  year lifeExp
##    <fct>       <fct>     <int>   <dbl>
##  1 Afghanistan Asia       1952    28.8
##  2 Afghanistan Asia       1957    30.3
##  3 Afghanistan Asia       1962    32.0
##  4 Afghanistan Asia       1967    34.0
##  5 Afghanistan Asia       1972    36.1
##  6 Afghanistan Asia       1977    38.4
##  7 Afghanistan Asia       1982    39.9
##  8 Afghanistan Asia       1987    40.8
##  9 Afghanistan Asia       1992    41.7
## 10 Afghanistan Asia       1997    41.8
## # ... with 1,694 more rows
```

```r
# Can also utilize numbers from columns, but this isn't helpful to readers first encountering the dataset:
select(gapminder, 1:4)
```

```
## # A tibble: 1,704 x 4
##    country     continent  year lifeExp
##    <fct>       <fct>     <int>   <dbl>
##  1 Afghanistan Asia       1952    28.8
##  2 Afghanistan Asia       1957    30.3
##  3 Afghanistan Asia       1962    32.0
##  4 Afghanistan Asia       1967    34.0
##  5 Afghanistan Asia       1972    36.1
##  6 Afghanistan Asia       1977    38.4
##  7 Afghanistan Asia       1982    39.9
##  8 Afghanistan Asia       1987    40.8
##  9 Afghanistan Asia       1992    41.7
## 10 Afghanistan Asia       1997    41.8
## # ... with 1,694 more rows
```

```r
# Additionally you must use the valiable's FULL name when selecting a variable
```

3. Select all variables, except `lifeExp`.


```r
# Omit specific variables by utilizing a minus sign before the given variable(s):
select(gapminder, -lifeExp)
```

```
## # A tibble: 1,704 x 5
##    country     continent  year      pop gdpPercap
##    <fct>       <fct>     <int>    <int>     <dbl>
##  1 Afghanistan Asia       1952  8425333      779.
##  2 Afghanistan Asia       1957  9240934      821.
##  3 Afghanistan Asia       1962 10267083      853.
##  4 Afghanistan Asia       1967 11537966      836.
##  5 Afghanistan Asia       1972 13079460      740.
##  6 Afghanistan Asia       1977 14880372      786.
##  7 Afghanistan Asia       1982 12881816      978.
##  8 Afghanistan Asia       1987 13867957      852.
##  9 Afghanistan Asia       1992 16317921      649.
## 10 Afghanistan Asia       1997 22227415      635.
## # ... with 1,694 more rows
```

4. Put `continent` first. Hint: use the `everything()` function.


```r
# Use "select()" followed by the variable(s) you want to order, then followed by "everything()" to follow the selection with everything that hasn't been touched yet:
select(gapminder, continent, everything())
```

```
## # A tibble: 1,704 x 6
##    continent country      year lifeExp      pop gdpPercap
##    <fct>     <fct>       <int>   <dbl>    <int>     <dbl>
##  1 Asia      Afghanistan  1952    28.8  8425333      779.
##  2 Asia      Afghanistan  1957    30.3  9240934      821.
##  3 Asia      Afghanistan  1962    32.0 10267083      853.
##  4 Asia      Afghanistan  1967    34.0 11537966      836.
##  5 Asia      Afghanistan  1972    36.1 13079460      740.
##  6 Asia      Afghanistan  1977    38.4 14880372      786.
##  7 Asia      Afghanistan  1982    39.9 12881816      978.
##  8 Asia      Afghanistan  1987    40.8 13867957      852.
##  9 Asia      Afghanistan  1992    41.7 16317921      649.
## 10 Asia      Afghanistan  1997    41.8 22227415      635.
## # ... with 1,694 more rows
```

5. Rename `continent` to `cont`.


```r
# To create a new assosciation between a variable's given name and desired name you can use the function "desired name = orriginal full name"

# To compare:
select(gapminder, cont = continent, everything())
```

```
## # A tibble: 1,704 x 6
##    cont  country      year lifeExp      pop gdpPercap
##    <fct> <fct>       <int>   <dbl>    <int>     <dbl>
##  1 Asia  Afghanistan  1952    28.8  8425333      779.
##  2 Asia  Afghanistan  1957    30.3  9240934      821.
##  3 Asia  Afghanistan  1962    32.0 10267083      853.
##  4 Asia  Afghanistan  1967    34.0 11537966      836.
##  5 Asia  Afghanistan  1972    36.1 13079460      740.
##  6 Asia  Afghanistan  1977    38.4 14880372      786.
##  7 Asia  Afghanistan  1982    39.9 12881816      978.
##  8 Asia  Afghanistan  1987    40.8 13867957      852.
##  9 Asia  Afghanistan  1992    41.7 16317921      649.
## 10 Asia  Afghanistan  1997    41.8 22227415      635.
## # ... with 1,694 more rows
```

```r
# To simply rename the variable(s) you can also use the command "rename()":
rename(gapminder, cont = continent)
```

```
## # A tibble: 1,704 x 6
##    country     cont   year lifeExp      pop gdpPercap
##    <fct>       <fct> <int>   <dbl>    <int>     <dbl>
##  1 Afghanistan Asia   1952    28.8  8425333      779.
##  2 Afghanistan Asia   1957    30.3  9240934      821.
##  3 Afghanistan Asia   1962    32.0 10267083      853.
##  4 Afghanistan Asia   1967    34.0 11537966      836.
##  5 Afghanistan Asia   1972    36.1 13079460      740.
##  6 Afghanistan Asia   1977    38.4 14880372      786.
##  7 Afghanistan Asia   1982    39.9 12881816      978.
##  8 Afghanistan Asia   1987    40.8 13867957      852.
##  9 Afghanistan Asia   1992    41.7 16317921      649.
## 10 Afghanistan Asia   1997    41.8 22227415      635.
## # ... with 1,694 more rows
```

```r
# To reassign all variable names and/or edit their display:
rename_all(gapminder, ~ toupper(.x))
```

```
## # A tibble: 1,704 x 6
##    COUNTRY     CONTINENT  YEAR LIFEEXP      POP GDPPERCAP
##    <fct>       <fct>     <int>   <dbl>    <int>     <dbl>
##  1 Afghanistan Asia       1952    28.8  8425333      779.
##  2 Afghanistan Asia       1957    30.3  9240934      821.
##  3 Afghanistan Asia       1962    32.0 10267083      853.
##  4 Afghanistan Asia       1967    34.0 11537966      836.
##  5 Afghanistan Asia       1972    36.1 13079460      740.
##  6 Afghanistan Asia       1977    38.4 14880372      786.
##  7 Afghanistan Asia       1982    39.9 12881816      978.
##  8 Afghanistan Asia       1987    40.8 13867957      852.
##  9 Afghanistan Asia       1992    41.7 16317921      649.
## 10 Afghanistan Asia       1997    41.8 22227415      635.
## # ... with 1,694 more rows
```

```r
# A tilda designates the application to all variables with the given base 

# If you want to redesignate an updated dataset you would do the following:
gapminder_new <- rename(gapminder, cont = continent)
gapminder_new
```

```
## # A tibble: 1,704 x 6
##    country     cont   year lifeExp      pop gdpPercap
##    <fct>       <fct> <int>   <dbl>    <int>     <dbl>
##  1 Afghanistan Asia   1952    28.8  8425333      779.
##  2 Afghanistan Asia   1957    30.3  9240934      821.
##  3 Afghanistan Asia   1962    32.0 10267083      853.
##  4 Afghanistan Asia   1967    34.0 11537966      836.
##  5 Afghanistan Asia   1972    36.1 13079460      740.
##  6 Afghanistan Asia   1977    38.4 14880372      786.
##  7 Afghanistan Asia   1982    39.9 12881816      978.
##  8 Afghanistan Asia   1987    40.8 13867957      852.
##  9 Afghanistan Asia   1992    41.7 16317921      649.
## 10 Afghanistan Asia   1997    41.8 22227415      635.
## # ... with 1,694 more rows
```
…
```r
?mtcars
```

```
## starting httpd help server ... done
```

```r
cars_tb <- as_tibble(mtcars)
select(cars_tb, mpg:hp, -disp)
```

```
## # A tibble: 32 x 3
##      mpg   cyl    hp
##    <dbl> <dbl> <dbl>
##  1  21       6   110
##  2  21       6   110
##  3  22.8     4    93
##  4  21.4     6   110
##  5  18.7     8   175
##  6  18.1     6   105
##  7  14.3     8   245
##  8  24.4     4    62
##  9  22.8     4    95
## 10  19.2     6   123
## # ... with 22 more rows
```

```r
rename(cars_tb, horsepower = hp)
```

```
## # A tibble: 32 x 11
##      mpg   cyl  disp horsepower  drat    wt  qsec    vs    am  gear  carb
##    <dbl> <dbl> <dbl>      <dbl> <dbl> <dbl> <dbl> <dbl> <dbl> <dbl> <dbl>
##  1  21       6  160         110  3.9   2.62  16.5     0     1     4     4
##  2  21       6  160         110  3.9   2.88  17.0     0     1     4     4
##  3  22.8     4  108          93  3.85  2.32  18.6     1     1     4     1
##  4  21.4     6  258         110  3.08  3.22  19.4     1     0     3     1
##  5  18.7     8  360         175  3.15  3.44  17.0     0     0     3     2
##  6  18.1     6  225         105  2.76  3.46  20.2     1     0     3     1
##  7  14.3     8  360         245  3.21  3.57  15.8     0     0     3     4
##  8  24.4     4  147.         62  3.69  3.19  20       1     0     4     2
##  9  22.8     4  141.         95  3.92  3.15  22.9     1     0     4     2
## 10  19.2     6  168.        123  3.92  3.44  18.3     1     0     4     4
## # ... with 22 more rows
```
## `arrange()`

1. Order by year.


```r
# "arrange()" orders the dataset in ascending order
arrange(gapminder, year)
```

```
## # A tibble: 1,704 x 6
##    country     continent  year lifeExp      pop gdpPercap
##    <fct>       <fct>     <int>   <dbl>    <int>     <dbl>
##  1 Afghanistan Asia       1952    28.8  8425333      779.
##  2 Albania     Europe     1952    55.2  1282697     1601.
##  3 Algeria     Africa     1952    43.1  9279525     2449.
##  4 Angola      Africa     1952    30.0  4232095     3521.
##  5 Argentina   Americas   1952    62.5 17876956     5911.
##  6 Australia   Oceania    1952    69.1  8691212    10040.
##  7 Austria     Europe     1952    66.8  6927772     6137.
##  8 Bahrain     Asia       1952    50.9   120447     9867.
##  9 Bangladesh  Asia       1952    37.5 46886859      684.
## 10 Belgium     Europe     1952    68    8730405     8343.
## # ... with 1,694 more rows
```

2. Order by year, in descending order.


```r
# "arrange()" plus "desc(var)" orders the dataset in descending order
arrange(gapminder, desc(year))
```

```
## # A tibble: 1,704 x 6
##    country     continent  year lifeExp       pop gdpPercap
##    <fct>       <fct>     <int>   <dbl>     <int>     <dbl>
##  1 Afghanistan Asia       2007    43.8  31889923      975.
##  2 Albania     Europe     2007    76.4   3600523     5937.
##  3 Algeria     Africa     2007    72.3  33333216     6223.
##  4 Angola      Africa     2007    42.7  12420476     4797.
##  5 Argentina   Americas   2007    75.3  40301927    12779.
##  6 Australia   Oceania    2007    81.2  20434176    34435.
##  7 Austria     Europe     2007    79.8   8199783    36126.
##  8 Bahrain     Asia       2007    75.6    708573    29796.
##  9 Bangladesh  Asia       2007    64.1 150448339     1391.
## 10 Belgium     Europe     2007    79.4  10392226    33693.
## # ... with 1,694 more rows
```

3. Order by year, then by life expectancy.


```r
# Same process, just input your variables in the order you want them to also be run as
arrange(gapminder, year, lifeExp)
```

```
## # A tibble: 1,704 x 6
##    country       continent  year lifeExp     pop gdpPercap
##    <fct>         <fct>     <int>   <dbl>   <int>     <dbl>
##  1 Afghanistan   Asia       1952    28.8 8425333      779.
##  2 Gambia        Africa     1952    30    284320      485.
##  3 Angola        Africa     1952    30.0 4232095     3521.
##  4 Sierra Leone  Africa     1952    30.3 2143249      880.
##  5 Mozambique    Africa     1952    31.3 6446316      469.
##  6 Burkina Faso  Africa     1952    32.0 4469979      543.
##  7 Guinea-Bissau Africa     1952    32.5  580653      300.
##  8 Yemen, Rep.   Asia       1952    32.5 4963829      782.
##  9 Somalia       Africa     1952    33.0 2526994     1136.
## 10 Guinea        Africa     1952    33.6 2664249      510.
## # ... with 1,694 more rows
```
…
Now using with pipes:


```r
# alter the below to include 2 "pipes"
# "ctrl +shift + m" for pipe shortcut
# not necessary to include dataset name after specifying the dataset you're utilizing at the begining of the pipeline
gapminder %>%
  select(year, lifeExp, country) %>% 
  arrange(year, lifeExp)
```

```
## # A tibble: 1,704 x 3
##     year lifeExp country      
##    <int>   <dbl> <fct>        
##  1  1952    28.8 Afghanistan  
##  2  1952    30   Gambia       
##  3  1952    30.0 Angola       
##  4  1952    30.3 Sierra Leone 
##  5  1952    31.3 Mozambique   
##  6  1952    32.0 Burkina Faso 
##  7  1952    32.5 Guinea-Bissau
##  8  1952    32.5 Yemen, Rep.  
##  9  1952    33.0 Somalia      
## 10  1952    33.6 Guinea       
## # ... with 1,694 more rows
```
…
# Transforming datasets

## `filter()`

1. Only take data with population greater than 100 million.


```r
gapminder %>%
  filter(pop > 100000000)
```

```
## # A tibble: 77 x 6
##    country    continent  year lifeExp       pop gdpPercap
##    <fct>      <fct>     <int>   <dbl>     <int>     <dbl>
##  1 Bangladesh Asia       1987    52.8 103764241      752.
##  2 Bangladesh Asia       1992    56.0 113704579      838.
##  3 Bangladesh Asia       1997    59.4 123315288      973.
##  4 Bangladesh Asia       2002    62.0 135656790     1136.
##  5 Bangladesh Asia       2007    64.1 150448339     1391.
##  6 Brazil     Americas   1972    59.5 100840058     4986.
##  7 Brazil     Americas   1977    61.5 114313951     6660.
##  8 Brazil     Americas   1982    63.3 128962939     7031.
##  9 Brazil     Americas   1987    65.2 142938076     7807.
## 10 Brazil     Americas   1992    67.1 155975974     6950.
## # ... with 67 more rows
```
```r
# if you get a peculiar error message using filter, be sure you've loaded dplyr
```

2. Your turn: of those rows filtered from step 1., only take data from Asia.


```r
gapminder %>%
  filter(pop > 100000000) %>% 
  filter(continent == "Asia")
```

```
## # A tibble: 52 x 6
##    country    continent  year lifeExp       pop gdpPercap
##    <fct>      <fct>     <int>   <dbl>     <int>     <dbl>
##  1 Bangladesh Asia       1987    52.8 103764241      752.
##  2 Bangladesh Asia       1992    56.0 113704579      838.
##  3 Bangladesh Asia       1997    59.4 123315288      973.
##  4 Bangladesh Asia       2002    62.0 135656790     1136.
##  5 Bangladesh Asia       2007    64.1 150448339     1391.
##  6 China      Asia       1952    44   556263527      400.
##  7 China      Asia       1957    50.5 637408000      576.
##  8 China      Asia       1962    44.5 665770000      488.
##  9 China      Asia       1967    58.4 754550000      613.
## 10 China      Asia       1972    63.1 862030000      677.
## # ... with 42 more rows
```

```r
# Be sure to use quotation marks when designating the desired variable selection

# Another option would be to abbreviate the pipeline as such:
gapminder %>% 
  filter(pop > 100000000, continent == "Asia")
```

```
## # A tibble: 52 x 6
##    country    continent  year lifeExp       pop gdpPercap
##    <fct>      <fct>     <int>   <dbl>     <int>     <dbl>
##  1 Bangladesh Asia       1987    52.8 103764241      752.
##  2 Bangladesh Asia       1992    56.0 113704579      838.
##  3 Bangladesh Asia       1997    59.4 123315288      973.
##  4 Bangladesh Asia       2002    62.0 135656790     1136.
##  5 Bangladesh Asia       2007    64.1 150448339     1391.
##  6 China      Asia       1952    44   556263527      400.
##  7 China      Asia       1957    50.5 637408000      576.
##  8 China      Asia       1962    44.5 665770000      488.
##  9 China      Asia       1967    58.4 754550000      613.
## 10 China      Asia       1972    63.1 862030000      677.
## # ... with 42 more rows
```
…
Let's get: 

- GDP by multiplying GPD per capita with population, and
- GDP in billions, named (`gdpBill`), rounded to two decimals.


```r
gapminder %>%
  mutate(grossGDP = gdpPercap * pop, 
         GDPbill = (grossGDP / 1000000000) %>% round(2))
```

```
## # A tibble: 1,704 x 8
##    country     continent  year lifeExp      pop gdpPercap     grossGDP GDPbill
##    <fct>       <fct>     <int>   <dbl>    <int>     <dbl>        <dbl>   <dbl>
##  1 Afghanistan Asia       1952    28.8  8425333      779.  6567086330.    6.57
##  2 Afghanistan Asia       1957    30.3  9240934      821.  7585448670.    7.59
##  3 Afghanistan Asia       1962    32.0 10267083      853.  8758855797.    8.76
##  4 Afghanistan Asia       1967    34.0 11537966      836.  9648014150.    9.65
##  5 Afghanistan Asia       1972    36.1 13079460      740.  9678553274.    9.68
##  6 Afghanistan Asia       1977    38.4 14880372      786. 11697659231.   11.7 
##  7 Afghanistan Asia       1982    39.9 12881816      978. 12598563401.   12.6 
##  8 Afghanistan Asia       1987    40.8 13867957      852. 11820990309.   11.8 
##  9 Afghanistan Asia       1992    41.7 16317921      649. 10595901589.   10.6 
## 10 Afghanistan Asia       1997    41.8 22227415      635. 14121995875.   14.1 
## # ... with 1,694 more rows
```

Notice the backwards compatibility! No need for loops!

Try the same thing, but with `transmute` (drops all other variables). 


```r
gapminder %>%
  transmute(country, year, lifeExp, gdpBill = (pop * gdpPercap / 1000000000) %>% round(2)) 
```

```
## # A tibble: 1,704 x 4
##    country      year lifeExp gdpBill
##    <fct>       <int>   <dbl>   <dbl>
##  1 Afghanistan  1952    28.8    6.57
##  2 Afghanistan  1957    30.3    7.59
##  3 Afghanistan  1962    32.0    8.76
##  4 Afghanistan  1967    34.0    9.65
##  5 Afghanistan  1972    36.1    9.68
##  6 Afghanistan  1977    38.4   11.7 
##  7 Afghanistan  1982    39.9   12.6 
##  8 Afghanistan  1987    40.8   11.8 
##  9 Afghanistan  1992    41.7   10.6 
## 10 Afghanistan  1997    41.8   14.1 
## # ... with 1,694 more rows
```
…
```r
gapminder %>% 
  mutate(lifeExp = if_else(country == "Bangladesh", NA_real_, lifeExp)) %>% 
  arrange(year)
```

```
## # A tibble: 1,704 x 6
##    country     continent  year lifeExp      pop gdpPercap
##    <fct>       <fct>     <int>   <dbl>    <int>     <dbl>
##  1 Afghanistan Asia       1952    28.8  8425333      779.
##  2 Albania     Europe     1952    55.2  1282697     1601.
##  3 Algeria     Africa     1952    43.1  9279525     2449.
##  4 Angola      Africa     1952    30.0  4232095     3521.
##  5 Argentina   Americas   1952    62.5 17876956     5911.
##  6 Australia   Oceania    1952    69.1  8691212    10040.
##  7 Austria     Europe     1952    66.8  6927772     6137.
##  8 Bahrain     Asia       1952    50.9   120447     9867.
##  9 Bangladesh  Asia       1952    NA   46886859      684.
## 10 Belgium     Europe     1952    68    8730405     8343.
## # ... with 1,694 more rows
```
…
