…
2. Let's compute the mean Agreeableness score across items for each participant 
in the `psych::bfi` dataset. Be sure to handle `NA`!


```r
psych::bfi %>%
  as_tibble() %>% 
  select(A1:A5) %>% 
  rowwise() %>% 
  mutate(A_mean = mean(c(A1, A2, A3, A4, A5), na.rm = TRUE)) %>% 
  ungroup()
```

```
## # A tibble: 2,800 x 6
##       A1    A2    A3    A4    A5 A_mean
##    <int> <int> <int> <int> <int>  <dbl>
##  1     2     4     3     4     4    3.4
##  2     2     4     5     2     5    3.6
##  3     5     4     5     4     4    4.4
##  4     4     4     6     5     5    4.8
##  5     2     3     3     4     5    3.4
##  6     6     6     5     6     5    5.6
##  7     2     5     5     3     5    4  
##  8     4     3     1     5     1    2.8
##  9     4     3     6     3     3    3.8
## 10     2     5     6     6     5    4.8
## # ... with 2,790 more rows
```
…
Some functions are **vectorized**, so you don't need `rowwise()`. 
For example, `pmin()` computes the "parallel min" across the vectors it receives:


```r
psych::bfi %>% 
  as_tibble() %>% 
  select(A1:A5) %>% 
  mutate(A_min = pmin(A1, A2, A3, A4, A5))
```

```
## # A tibble: 2,800 x 6
##       A1    A2    A3    A4    A5 A_min
##    <int> <int> <int> <int> <int> <int>
##  1     2     4     3     4     4     2
##  2     2     4     5     2     5     2
##  3     5     4     5     4     4     4
##  4     4     4     6     5     5     4
##  5     2     3     3     4     5     2
##  6     6     6     5     6     5     5
##  7     2     5     5     3     5     2
##  8     4     3     1     5     1     1
##  9     4     3     6     3     3     3
## 10     2     5     6     6     5     2
## # ... with 2,790 more rows
```
…
`rowMeans()` computes the mean of each row of a data frame. We can use it by
putting `select()` inside of `mutate()`:



```r
psych::bfi %>% 
  as_tibble() %>% 
  select(A1:A5) %>% 
  mutate(A_mn = rowMeans(select(., A1:A5)),
         A_mn2 = rowMeans(select(., starts_with("A", ignore.case = FALSE))))
```

```
## # A tibble: 2,800 x 7
##       A1    A2    A3    A4    A5  A_mn A_mn2
##    <int> <int> <int> <int> <int> <dbl> <dbl>
##  1     2     4     3     4     4   3.4   3.4
##  2     2     4     5     2     5   3.6   3.6
##  3     5     4     5     4     4   4.4   4.4
##  4     4     4     6     5     5   4.8   4.8
##  5     2     3     3     4     5   3.4   3.4
##  6     6     6     5     6     5   5.6   5.6
##  7     2     5     5     3     5   4     4  
##  8     4     3     1     5     1   2.8   2.8
##  9     4     3     6     3     3   3.8   3.8
## 10     2     5     6     6     5   4.8   4.8
## # ... with 2,790 more rows
```
…
